processor/ifofexmawb.vcd
$date
	Thu Oct 20 14:21:23 2022
$end
$version
	Icarus Verilog
$end
$timescale
	1s
$end
$scope module ifofexmawb $end
$var reg 1 ! clk $end
$upscope $end
$scope module ifofexmawb $end
$var reg 1 " control_stall $end
$upscope $end
$scope module ifofexmawb $end
$var reg 1 # data_stall $end
$upscope $end
$scope module ifofexmawb $end
$scope module of $end
$var wire 157 $ OF_output [156:0] $end
$upscope $end
$upscope $end
$scope module ifofexmawb $end
$scope module of $end
$var reg 24 % IF_output_reg [23:0] $end
$upscope $end
$upscope $end
$scope module ifofexmawb $end
$var reg 2 & stalling_control_signal [1:0] $end
$upscope $end
$scope module ifofexmawb $end
$var reg 24 ' prev_IfOf [23:0] $end
$upscope $end
$scope module ifofexmawb $end
$var reg 157 ( OfEx [156:0] $end
$upscope $end
$scope module ifofexmawb $end
$var reg 9 ) Branching [8:0] $end
$upscope $end
$scope module ifofexmawb $end
$var reg 24 * IfOf [23:0] $end
$upscope $end
$scope module ifofexmawb $end
$scope module inf $end
$var reg 8 + Program_Counter [7:0] $end
$upscope $end
$upscope $end
$scope module ifofexmawb $end
$var reg 64 , \registers[0] [63:0] $end
$upscope $end
$scope module ifofexmawb $end
$var reg 64 - \registers[1] [63:0] $end
$upscope $end
$scope module ifofexmawb $end
$var reg 64 . \registers[2] [63:0] $end
$upscope $end
$scope module ifofexmawb $end
$var reg 64 / \registers[3] [63:0] $end
$upscope $end
$scope module ifofexmawb $end
$var reg 64 0 \registers[4] [63:0] $end
$upscope $end
$scope module ifofexmawb $end
$var reg 64 1 \registers[5] [63:0] $end
$upscope $end
$scope module ifofexmawb $end
$var reg 64 2 \registers[6] [63:0] $end
$upscope $end
$scope module ifofexmawb $end
$var reg 64 3 \registers[7] [63:0] $end
$upscope $end
$scope module ifofexmawb $end
$var reg 64 4 \registers[8] [63:0] $end
$upscope $end
$scope module ifofexmawb $end
$var reg 64 5 \registers[9] [63:0] $end
$upscope $end
$scope module ifofexmawb $end
$var reg 64 6 \registers[10] [63:0] $end
$upscope $end
$scope module ifofexmawb $end
$var reg 64 7 \registers[11] [63:0] $end
$upscope $end
$scope module ifofexmawb $end
$var reg 64 8 \registers[12] [63:0] $end
$upscope $end
$scope module ifofexmawb $end
$var reg 64 9 \registers[13] [63:0] $end
$upscope $end
$scope module ifofexmawb $end
$var reg 64 : \registers[14] [63:0] $end
$upscope $end
$scope module ifofexmawb $end
$var reg 64 ; \registers[15] [63:0] $end
$upscope $end
$enddefinitions $end
#0
$dumpvars
b0 ;
b0 :
b0 9
b0 8
b0 7
b0 6
b0 5
b1000 4
b111 3
b110 2
b101 1
b100 0
b10 /
b10 .
b1 -
b0 ,
b0 +
b10001110100000000 *
bx )
b0 (
bx '
bx &
bx %
bx0xxxxxxxxxxxxxxxxxxxxxxxxxxxxxxxxxxxxxxxxxxxxxxxxxxxxxxxxxxxxxxxxxxxxxxxxxxxxxxxxxxxxxxxxxxxxxxxxxxxxxxxxxxxxxxxxxxxxxxxxxxxxxxxxxxxxxxxxxxxxxxxx $
x#
x"
0!
$end
#10
b1000000010000000000000000000000000000000000000000000000000000000000000000100000000000000000000000000000000000000000000000000000000000000010000000001010000 $
b10001110100000000 %
b0 &
0#
0"
1!
#11
b10110000000001 *
b1000000010000000000000000000000000000000000000000000000000000000000000000100000000000000000000000000000000000000000000000000000000000000010000000001010000 (
b0 )
b1 +
#20
b10110000000001 '
0!
#30
b10110000000001 %
b10000000000000000000000000000000000000000000000000000000000000000000000000000000000000000000000000000000000000000000000000000000000000000100000000101000000 $
1!
#31
b10001100000010 *
b1 )
b10000000000000000000000000000000000000000000000000000000000000000000000000000000000000000000000000000000000000000000000000000000000000000100000000101000000 (
b10 +
#40
b10001100000010 '
0!
#50
b10000000000000000000000000000000000000000000000000000000000000000000000000000000000000000000000000000000000000000000000000000000000000000100000001001000011 $
b10001100000010 %
1#
b10 &
1!
#51
b10000000000000000000000000000000000000000000000000000000000000000000000000000000000000000000000000000000000000000000000000000000000000000100000001001000011 (
#60
b100000000 (
0!
#70
b1001 -
b10 &
1#
1!
#71
b10000000000000000000000000000000000000000000000000000000000000000000000000000000000000000000000000000000000000000000000000000000000000000100000001001000011 (
#80
b100000000 (
0!
#90
b10000000000000000000000000000000000000000000000000000000000000000000000000000000000000000000000000000000000000000000000000000000000000000000000001001000011 $
b0 .
b10 &
1#
1!
#91
b10000000000000000000000000000000000000000000000000000000000000000000000000000000000000000000000000000000000000000000000000000000000000000000000001001000011 (
#100
b100000000 (
0!
#110
b10 &
0#
1!
#111
b11110000000011 *
b10000000000000000000000000000000000000000000000000000000000000000000000000000000000000000000000000000000000000000000000000000000000000000000000001001000011 (
b11 +
#120
b11110000000011 '
0!
#130
b11000000000000000000000000000000000000000000000000000000000000000000000000000000000000000000000000000000000000000000000000000000000000000100000001101000000 $
b11110000000011 %
b0 &
1!
#131
b100110000000100 *
b11000000000000000000000000000000000000000000000000000000000000000000000000000000000000000000000000000000000000000000000000000000000000000100000001101000000 (
b10 )
b100 +
#140
b100110000000100 '
0!
#150
b100110000000100 %
b100000000000000000000000000000000000000000000000000000000000000000000000000000000000000000000000000000000000000000000000000000000000000001000000010001000000 $
1!
#151
b100001100000101 *
b11 )
b100000000000000000000000000000000000000000000000000000000000000000000000000000000000000000000000000000000000000000000000000000000000000001000000010001000000 (
b101 +
#160
b100001100000101 '
0!
#170
b100000000000000000000000000000000000000000000000000000000000000000000000000000000000000000000000000000000000000000000000000000000000000001000000010101000011 $
b100001100000101 %
b1 .
1#
b10 &
1!
#171
b100000000000000000000000000000000000000000000000000000000000000000000000000000000000000000000000000000000000000000000000000000000000000001000000010101000011 (
b100 )
#180
b100000000 (
0!
#190
b0 /
b10 &
1#
1!
#191
b1 )
b100000000000000000000000000000000000000000000000000000000000000000000000000000000000000000000000000000000000000000000000000000000000000001000000010101000011 (
#200
b100000000 (
0!
#210
b100000000000000000000000000000000000000000000000000000000000000000000000000000000000000000000000000000000000000000000000000000000000000000000000010101000011 $
b0 0
b10 &
1#
1!
#211
b100000000000000000000000000000000000000000000000000000000000000000000000000000000000000000000000000000000000000000000000000000000000000000000000010101000011 (
#220
b100000000 (
0!
#230
b10 &
0#
1!
#231
b111100100001011000000110 *
b100000000000000000000000000000000000000000000000000000000000000000000000000000000000000000000000000000000000000000000000000000000000000000000000010101000011 (
b110 +
#240
b111100100001011000000110 '
0!
#250
b1111111100100000000000000000000000000000000000000000000000000000000000000000100000000000000000000000000000000000000000000000000000000000010010000011001000110 $
b111100100001011000000110 %
b11 &
1!
#251
b1111111101100000111 *
b1111111100100000000000000000000000000000000000000000000000000000000000000000100000000000000000000000000000000000000000000000000000000000010010000011001000110 (
b101 )
b111 +
#260
b1111111101100000111 '
0!
#270
b1111111101100000111 %
b1111000001110000000000000000000000000000000000000000000000000000000000000011100000000000000000000000000000000000000000000000000000000000000000000011100001000 $
1#
b0 &
1!
#271
b11111000 )
b1111000001110000000000000000000000000000000000000000000000000000000000000011100000000000000000000000000000000000000000000000000000000000000000000011100001000 (
#280
b100000000 (
0!
#290
b1 0
1#
1!
#291
b1111000001110000000000000000000000000000000000000000000000000000000000000011100000000000000000000000000000000000000000000000000000000000000000000011100001000 (
b1 )
#300
b100000000 (
0!
#310
b0 ;
1#
1!
#311
b1111000001110000000000000000000000000000000000000000000000000000000000000011100000000000000000000000000000000000000000000000000000000000000000000011100001000 (
#320
b100000000 (
0!
#330
0#
1!
#331
b1101000011010000001000 *
b1111000001110000000000000000000000000000000000000000000000000000000000000011100000000000000000000000000000000000000000000000000000000000000000000011100001000 (
b1000 +
#340
b1101000011010000001000 '
0!
#350
b1101000011010000001000 %
b11001101000000000000000000000000000000000000000000000000000000000000000000100000000000000000000000000000000000000000000000000000000000000000000100001000100 $
b11 &
1!
#351
b10000110100010000001001 *
b1110 )
b11001101000000000000000000000000000000000000000000000000000000000000000000100000000000000000000000000000000000000000000000000000000000000000000100001000100 (
b1001 +
#360
b10000110100010000001001 '
0!
#370
b100010000110000000000000000000000000000000000000000000000000000000000000000000000000000000000000000000000000000000000000000000000000000000010000100101000100 $
b10000110100010000001001 %
1#
b11 &
1!
#371
b100010000110000000000000000000000000000000000000000000000000000000000000000000000000000000000000000000000000000000000000000000000000000000010000100101000100 (
b111100 )
#380
b100000000 (
0!
#390
b11 &
1#
1!
#391
b1 )
b100010000110000000000000000000000000000000000000000000000000000000000000000000000000000000000000000000000000000000000000000000000000000000010000100101000100 (
#400
b100000000 (
0!
#410
b100010000110000000000000000000000000000000000000000000000000000000000000000100000000000000000000000000000000000000000000000000000000000000010000100101000100 $
b1 /
b11 &
1#
1!
#411
b100010000110000000000000000000000000000000000000000000000000000000000000000100000000000000000000000000000000000000000000000000000000000000010000100101000100 (
#420
b100000000 (
0!
#430
b11 &
0#
1!
#431
b1101000011010000001010 *
b100010000110000000000000000000000000000000000000000000000000000000000000000100000000000000000000000000000000000000000000000000000000000000010000100101000100 (
b1010 +
#440
b1101000011010000001010 '
0!
#450
b11001101000000000000000000000000000000000000000000000000000000000000000000100000000000000000000000000000000000000000000000000000000000000010000101001000100 $
b1101000011010000001010 %
1#
b11 &
1!
#451
b11001101000000000000000000000000000000000000000000000000000000000000000000100000000000000000000000000000000000000000000000000000000000000010000101001000100 (
b1001100 )
#460
b100000000 (
0!
#470
b11 &
1#
1!
#471
b1 )
b11001101000000000000000000000000000000000000000000000000000000000000000000100000000000000000000000000000000000000000000000000000000000000010000101001000100 (
#480
b100000000 (
0!
#490
b11001101000000000000000000000000000000000000000000000000000000000000000000000000000000000000000000000000000000000000000000000000000000000010000101001000100 $
b0 0
b11 &
1#
1!
#491
b11001101000000000000000000000000000000000000000000000000000000000000000000000000000000000000000000000000000000000000000000000000000000000010000101001000100 (
#500
b100000000 (
0!
#510
b11 &
0#
1!
#511
b10000110100000100001011 *
b11001101000000000000000000000000000000000000000000000000000000000000000000000000000000000000000000000000000000000000000000000000000000000010000101001000100 (
b1011 +
#520
b10000110100000100001011 '
0!
#530
b100010000110000000000000000000000000000000000000000000000000000000000000000100000000000000000000000000000000000000000000000000000000000000000000101101000001 $
b10000110100000100001011 %
1#
b11 &
1!
#531
b100010000110000000000000000000000000000000000000000000000000000000000000000100000000000000000000000000000000000000000000000000000000000000000000101101000001 (
b111110 )
#540
b100000000 (
0!
#550
b11 &
1#
1!
#551
b1 )
b100010000110000000000000000000000000000000000000000000000000000000000000000100000000000000000000000000000000000000000000000000000000000000000000101101000001 (
#560
b100000000 (
0!
#570
b1 /
b11 &
1#
1!
#571
b100010000110000000000000000000000000000000000000000000000000000000000000000100000000000000000000000000000000000000000000000000000000000000000000101101000001 (
#580
b100000000 (
0!
#590
b11 &
0#
1!
#591
b10001100001100 *
b100010000110000000000000000000000000000000000000000000000000000000000000000100000000000000000000000000000000000000000000000000000000000000000000101101000001 (
b1100 +
#600
b10001100001100 '
0!
#610
b10000000000000000000000000000000000000000000000000000000000000000000000000000000000000000000000000000000000000000000000000000000000000000010000110001000011 $
b10001100001100 %
b10 &
1!
#611
b111110010000111100001101 *
b10000000000000000000000000000000000000000000000000000000000000000000000000000000000000000000000000000000000000000000000000000000000000000010000110001000011 (
b1001110 )
b1101 +
#620
b111110010000111100001101 '
0!
#630
b111110010000111100001101 %
b111110010000000000000000000000000000000000000000000000000000000000000000000000000000000000000000000000000000000000000000000000000000000000000110110000000 $
b0 &
1!
#631
b100011101000001110 *
b1100 )
b111110010000000000000000000000000000000000000000000000000000000000000000000000000000000000000000000000000000000000000000000000000000000000000110110000000 (
b1110 +
#640
b100011101000001110 '
0!
#650
b11000000100000000000000000000000000000000000000000000000000000000000000000100000000000000000000000000000000000000000000000000000000000000010000111000100000 $
b100011101000001110 %
b1 0
b10 &
1!
#651
b111111111111111100001111 *
b11000000100000000000000000000000000000000000000000000000000000000000000000100000000000000000000000000000000000000000000000000000000000000010000111000100000 (
b100000110 )
b1111 +
#652
1"
#660
b100000000000 '
b100000000 (
b100000000000 *
0!
#670
b10 .
b100000000000 %
b0 $
b0 &
0"
1!
#671
b111100100001011000000110 *
b1 )
b0 (
b110 +
#680
b111100100001011000000110 '
0!
#690
b1111111100100000000000000000000000000000000000000000000000000000000000000001000000000000000000000000000000000000000000000000000000000000010010000011001000110 $
b111100100001011000000110 %
b11 &
1!
#691
b1111111101100000111 *
b1111111100100000000000000000000000000000000000000000000000000000000000000001000000000000000000000000000000000000000000000000000000000000010010000011001000110 (
b0 )
b111 +
#700
b1111111101100000111 '
0!
#710
b1111111101100000111 %
b1111000001110000000000000000000000000000000000000000000000000000000000000011100000000000000000000000000000000000000000000000000000000000000000000011100001000 $
1#
b0 &
1!
#711
b11111000 )
b1111000001110000000000000000000000000000000000000000000000000000000000000011100000000000000000000000000000000000000000000000000000000000000000000011100001000 (
#720
b100000000 (
0!
#730
1#
1!
#731
b1111000001110000000000000000000000000000000000000000000000000000000000000011100000000000000000000000000000000000000000000000000000000000000000000011100001000 (
b1 )
#740
b100000000 (
0!
#750
b0 ;
1#
1!
#751
b1111000001110000000000000000000000000000000000000000000000000000000000000011100000000000000000000000000000000000000000000000000000000000000000000011100001000 (
#760
b100000000 (
0!
#770
0#
1!
#771
b1101000011010000001000 *
b1111000001110000000000000000000000000000000000000000000000000000000000000011100000000000000000000000000000000000000000000000000000000000000000000011100001000 (
b1000 +
#780
b1101000011010000001000 '
0!
#790
b1101000011010000001000 %
b11001101000000000000000000000000000000000000000000000000000000000000000000100000000000000000000000000000000000000000000000000000000000000010000100001000100 $
b11 &
1!
#791
b10000110100010000001001 *
b1110 )
b11001101000000000000000000000000000000000000000000000000000000000000000000100000000000000000000000000000000000000000000000000000000000000010000100001000100 (
b1001 +
#800
b10000110100010000001001 '
0!
#810
b100010000110000000000000000000000000000000000000000000000000000000000000000100000000000000000000000000000000000000000000000000000000000000010000100101000100 $
b10000110100010000001001 %
1#
b11 &
1!
#811
b100010000110000000000000000000000000000000000000000000000000000000000000000100000000000000000000000000000000000000000000000000000000000000010000100101000100 (
b111100 )
#820
b100000000 (
0!
#830
b11 &
1#
1!
#831
b1 )
b100010000110000000000000000000000000000000000000000000000000000000000000000100000000000000000000000000000000000000000000000000000000000000010000100101000100 (
#840
b100000000 (
0!
#850
b100010000110000000000000000000000000000000000000000000000000000000000000000000000000000000000000000000000000000000000000000000000000000000010000100101000100 $
b0 /
b11 &
1#
1!
#851
b100010000110000000000000000000000000000000000000000000000000000000000000000000000000000000000000000000000000000000000000000000000000000000010000100101000100 (
#860
b100000000 (
0!
#870
b11 &
0#
1!
#871
b1101000011010000001010 *
b100010000110000000000000000000000000000000000000000000000000000000000000000000000000000000000000000000000000000000000000000000000000000000010000100101000100 (
b1010 +
#880
b1101000011010000001010 '
0!
#890
b11001101000000000000000000000000000000000000000000000000000000000000000000100000000000000000000000000000000000000000000000000000000000000000000101001000100 $
b1101000011010000001010 %
1#
b11 &
1!
#891
b11001101000000000000000000000000000000000000000000000000000000000000000000100000000000000000000000000000000000000000000000000000000000000000000101001000100 (
b1001100 )
#900
b100000000 (
0!
#910
b11 &
1#
1!
#911
b1 )
b11001101000000000000000000000000000000000000000000000000000000000000000000100000000000000000000000000000000000000000000000000000000000000000000101001000100 (
#920
b100000000 (
0!
#930
b1 0
b11 &
1#
1!
#931
b11001101000000000000000000000000000000000000000000000000000000000000000000100000000000000000000000000000000000000000000000000000000000000000000101001000100 (
#940
b100000000 (
0!
#950
b11 &
0#
1!
#951
b10000110100000100001011 *
b11001101000000000000000000000000000000000000000000000000000000000000000000100000000000000000000000000000000000000000000000000000000000000000000101001000100 (
b1011 +
#960
b10000110100000100001011 '
0!
#970
b100010000110000000000000000000000000000000000000000000000000000000000000000000000000000000000000000000000000000000000000000000000000000000010000101101000001 $
b10000110100000100001011 %
1#
b11 &
1!
#971
b100010000110000000000000000000000000000000000000000000000000000000000000000000000000000000000000000000000000000000000000000000000000000000010000101101000001 (
b111110 )
#980
b100000000 (
0!
#990
b11 &
1#
1!
#991
b1 )
b100010000110000000000000000000000000000000000000000000000000000000000000000000000000000000000000000000000000000000000000000000000000000000010000101101000001 (
#1000
b100000000 (
0!
#1010
b100010000110000000000000000000000000000000000000000000000000000000000000000100000000000000000000000000000000000000000000000000000000000000010000101101000001 $
b1 /
b11 &
1#
1!
#1011
b100010000110000000000000000000000000000000000000000000000000000000000000000100000000000000000000000000000000000000000000000000000000000000010000101101000001 (
#1020
b100000000 (
0!
#1030
b11 &
0#
1!
#1031
b10001100001100 *
b100010000110000000000000000000000000000000000000000000000000000000000000000100000000000000000000000000000000000000000000000000000000000000010000101101000001 (
b1100 +
#1040
b10001100001100 '
0!
#1050
b10000000000000000000000000000000000000000000000000000000000000000000000000000000000000000000000000000000000000000000000000000000000000000100000110001000011 $
b10001100001100 %
b10 &
1!
#1051
b111110010000111100001101 *
b10000000000000000000000000000000000000000000000000000000000000000000000000000000000000000000000000000000000000000000000000000000000000000100000110001000011 (
b1001110 )
b1101 +
#1060
b111110010000111100001101 '
0!
#1070
b111110010000111100001101 %
b111110010000000000000000000000000000000000000000000000000000000000000000000000000000000000000000000000000000000000000000000000000000000000000110110000000 $
b0 &
1!
#1071
b100011101000001110 *
b1100 )
b111110010000000000000000000000000000000000000000000000000000000000000000000000000000000000000000000000000000000000000000000000000000000000000110110000000 (
b1110 +
#1080
b100011101000001110 '
0!
#1090
b11000000100000000000000000000000000000000000000000000000000000000000000001000000000000000000000000000000000000000000000000000000000000000010000111000100000 $
b100011101000001110 %
b10 0
b10 &
1!
#1091
b111111111111111100001111 *
b11000000100000000000000000000000000000000000000000000000000000000000000001000000000000000000000000000000000000000000000000000000000000000010000111000100000 (
b100000110 )
b1111 +
#1092
1"
#1100
b100000000000 '
b100000000 (
b100000000000 *
0!
#1110
b11 .
b100000000000 %
b0 $
b0 &
0"
1!
#1111
b111100100001011000000110 *
b1 )
b0 (
b110 +
#1120
b111100100001011000000110 '
0!
#1130
b1111111100100000000000000000000000000000000000000000000000000000000000000001100000000000000000000000000000000000000000000000000000000000010010000011001000110 $
b111100100001011000000110 %
b11 &
1!
#1131
b1111111101100000111 *
b1111111100100000000000000000000000000000000000000000000000000000000000000001100000000000000000000000000000000000000000000000000000000000010010000011001000110 (
b0 )
b111 +
#1140
b1111111101100000111 '
0!
#1150
b1111111101100000111 %
b1111000001110000000000000000000000000000000000000000000000000000000000000011100000000000000000000000000000000000000000000000000000000000000000000011100001000 $
1#
b0 &
1!
#1151
b11111000 )
b1111000001110000000000000000000000000000000000000000000000000000000000000011100000000000000000000000000000000000000000000000000000000000000000000011100001000 (
#1160
b100000000 (
0!
#1170
1#
1!
#1171
b1111000001110000000000000000000000000000000000000000000000000000000000000011100000000000000000000000000000000000000000000000000000000000000000000011100001000 (
b1 )
#1180
b100000000 (
0!
#1190
b0 ;
1#
1!
#1191
b1111000001110000000000000000000000000000000000000000000000000000000000000011100000000000000000000000000000000000000000000000000000000000000000000011100001000 (
#1200
b100000000 (
0!
#1210
0#
1!
#1211
b1101000011010000001000 *
b1111000001110000000000000000000000000000000000000000000000000000000000000011100000000000000000000000000000000000000000000000000000000000000000000011100001000 (
b1000 +
#1220
b1101000011010000001000 '
0!
#1230
b1101000011010000001000 %
b11001101000000000000000000000000000000000000000000000000000000000000000001000000000000000000000000000000000000000000000000000000000000000010000100001000100 $
b11 &
1!
#1231
b10000110100010000001001 *
b1110 )
b11001101000000000000000000000000000000000000000000000000000000000000000001000000000000000000000000000000000000000000000000000000000000000010000100001000100 (
b1001 +
#1240
b10000110100010000001001 '
0!
#1250
b100010000110000000000000000000000000000000000000000000000000000000000000000100000000000000000000000000000000000000000000000000000000000000100000100101000100 $
b10000110100010000001001 %
1#
b11 &
1!
#1251
b100010000110000000000000000000000000000000000000000000000000000000000000000100000000000000000000000000000000000000000000000000000000000000100000100101000100 (
b111100 )
#1260
b100000000 (
0!
#1270
b11 &
1#
1!
#1271
b1 )
b100010000110000000000000000000000000000000000000000000000000000000000000000100000000000000000000000000000000000000000000000000000000000000100000100101000100 (
#1280
b100000000 (
0!
#1290
b100010000110000000000000000000000000000000000000000000000000000000000000001100000000000000000000000000000000000000000000000000000000000000100000100101000100 $
b11 /
b11 &
1#
1!
#1291
b100010000110000000000000000000000000000000000000000000000000000000000000001100000000000000000000000000000000000000000000000000000000000000100000100101000100 (
#1300
b100000000 (
0!
#1310
b11 &
0#
1!
#1311
b1101000011010000001010 *
b100010000110000000000000000000000000000000000000000000000000000000000000001100000000000000000000000000000000000000000000000000000000000000100000100101000100 (
b1010 +
#1320
b1101000011010000001010 '
0!
#1330
b11001101000000000000000000000000000000000000000000000000000000000000000001000000000000000000000000000000000000000000000000000000000000000110000101001000100 $
b1101000011010000001010 %
1#
b11 &
1!
#1331
b11001101000000000000000000000000000000000000000000000000000000000000000001000000000000000000000000000000000000000000000000000000000000000110000101001000100 (
b1001100 )
#1340
b100000000 (
0!
#1350
b11 &
1#
1!
#1351
b1 )
b11001101000000000000000000000000000000000000000000000000000000000000000001000000000000000000000000000000000000000000000000000000000000000110000101001000100 (
#1360
b100000000 (
0!
#1370
b11001101000000000000000000000000000000000000000000000000000000000000000000100000000000000000000000000000000000000000000000000000000000000110000101001000100 $
b1 0
b11 &
1#
1!
#1371
b11001101000000000000000000000000000000000000000000000000000000000000000000100000000000000000000000000000000000000000000000000000000000000110000101001000100 (
#1380
b100000000 (
0!
#1390
b11 &
0#
1!
#1391
b10000110100000100001011 *
b11001101000000000000000000000000000000000000000000000000000000000000000000100000000000000000000000000000000000000000000000000000000000000110000101001000100 (
b1011 +
#1400
b10000110100000100001011 '
0!
#1410
b100010000110000000000000000000000000000000000000000000000000000000000000001100000000000000000000000000000000000000000000000000000000000000010000101101000001 $
b10000110100000100001011 %
1#
b11 &
1!
#1411
b100010000110000000000000000000000000000000000000000000000000000000000000001100000000000000000000000000000000000000000000000000000000000000010000101101000001 (
b111110 )
#1420
b100000000 (
0!
#1430
b11 &
1#
1!
#1431
b1 )
b100010000110000000000000000000000000000000000000000000000000000000000000001100000000000000000000000000000000000000000000000000000000000000010000101101000001 (
#1440
b100000000 (
0!
#1450
b100010000110000000000000000000000000000000000000000000000000000000000000001000000000000000000000000000000000000000000000000000000000000000010000101101000001 $
b10 /
b11 &
1#
1!
#1451
b100010000110000000000000000000000000000000000000000000000000000000000000001000000000000000000000000000000000000000000000000000000000000000010000101101000001 (
#1460
b100000000 (
0!
#1470
b11 &
0#
1!
#1471
b10001100001100 *
b100010000110000000000000000000000000000000000000000000000000000000000000001000000000000000000000000000000000000000000000000000000000000000010000101101000001 (
b1100 +
#1480
b10001100001100 '
0!
#1490
b10000000000000000000000000000000000000000000000000000000000000000000000000000000000000000000000000000000000000000000000000000000000000000110000110001000011 $
b10001100001100 %
b10 &
1!
#1491
b111110010000111100001101 *
b10000000000000000000000000000000000000000000000000000000000000000000000000000000000000000000000000000000000000000000000000000000000000000110000110001000011 (
b1001110 )
b1101 +
#1500
b111110010000111100001101 '
0!
#1510
b111110010000111100001101 %
b111110010000000000000000000000000000000000000000000000000000000000000000000000000000000000000000000000000000000000000000000000000000000000000110110000000 $
b0 &
1!
#1511
b100011101000001110 *
b1100 )
b111110010000000000000000000000000000000000000000000000000000000000000000000000000000000000000000000000000000000000000000000000000000000000000110110000000 (
b1110 +
#1520
b100011101000001110 '
0!
#1530
b11000000100000000000000000000000000000000000000000000000000000000000000001100000000000000000000000000000000000000000000000000000000000000100000111000100000 $
b100011101000001110 %
b11 0
b10 &
1!
#1531
b111111111111111100001111 *
b11000000100000000000000000000000000000000000000000000000000000000000000001100000000000000000000000000000000000000000000000000000000000000100000111000100000 (
b100000110 )
b1111 +
#1532
1"
#1540
b100000000000 '
b100000000 (
b100000000000 *
0!
#1550
b100 .
b100000000000 %
b0 $
b0 &
0"
1!
#1551
b111100100001011000000110 *
b1 )
b0 (
b110 +
#1560
b111100100001011000000110 '
0!
#1570
b1111111100100000000000000000000000000000000000000000000000000000000000000010000000000000000000000000000000000000000000000000000000000000010010000011001000110 $
b111100100001011000000110 %
b11 &
1!
#1571
b1111111101100000111 *
b1111111100100000000000000000000000000000000000000000000000000000000000000010000000000000000000000000000000000000000000000000000000000000010010000011001000110 (
b0 )
b111 +
#1580
b1111111101100000111 '
0!
#1590
b1111111101100000111 %
b1111000001110000000000000000000000000000000000000000000000000000000000000011100000000000000000000000000000000000000000000000000000000000000000000011100001000 $
1#
b0 &
1!
#1591
b11111000 )
b1111000001110000000000000000000000000000000000000000000000000000000000000011100000000000000000000000000000000000000000000000000000000000000000000011100001000 (
#1600
b100000000 (
0!
#1610
1#
1!
#1611
b1111000001110000000000000000000000000000000000000000000000000000000000000011100000000000000000000000000000000000000000000000000000000000000000000011100001000 (
b1 )
#1620
b100000000 (
0!
#1630
b0 ;
1#
1!
#1631
b1111000001110000000000000000000000000000000000000000000000000000000000000011100000000000000000000000000000000000000000000000000000000000000000000011100001000 (
#1640
b100000000 (
0!
#1650
0#
1!
#1651
b1101000011010000001000 *
b1111000001110000000000000000000000000000000000000000000000000000000000000011100000000000000000000000000000000000000000000000000000000000000000000011100001000 (
b1000 +
#1660
b1101000011010000001000 '
0!
#1670
b1101000011010000001000 %
b11001101000000000000000000000000000000000000000000000000000000000000000001100000000000000000000000000000000000000000000000000000000000000100000100001000100 $
b11 &
1!
#1671
b10000110100010000001001 *
b1110 )
b11001101000000000000000000000000000000000000000000000000000000000000000001100000000000000000000000000000000000000000000000000000000000000100000100001000100 (
b1001 +
#1680
b10000110100010000001001 '
0!
#1690
b100010000110000000000000000000000000000000000000000000000000000000000000001000000000000000000000000000000000000000000000000000000000000000110000100101000100 $
b10000110100010000001001 %
1#
b11 &
1!
#1691
b100010000110000000000000000000000000000000000000000000000000000000000000001000000000000000000000000000000000000000000000000000000000000000110000100101000100 (
b111100 )
#1700
b100000000 (
0!
#1710
b11 &
1#
1!
#1711
b1 )
b100010000110000000000000000000000000000000000000000000000000000000000000001000000000000000000000000000000000000000000000000000000000000000110000100101000100 (
#1720
b100000000 (
0!
#1730
b100010000110000000000000000000000000000000000000000000000000000000000000000100000000000000000000000000000000000000000000000000000000000000110000100101000100 $
b1 /
b11 &
1#
1!
#1731
b100010000110000000000000000000000000000000000000000000000000000000000000000100000000000000000000000000000000000000000000000000000000000000110000100101000100 (
#1740
b100000000 (
0!
#1750
b11 &
0#
1!
#1751
b1101000011010000001010 *
b100010000110000000000000000000000000000000000000000000000000000000000000000100000000000000000000000000000000000000000000000000000000000000110000100101000100 (
b1010 +
#1760
b1101000011010000001010 '
0!
#1770
b11001101000000000000000000000000000000000000000000000000000000000000000001100000000000000000000000000000000000000000000000000000000000000010000101001000100 $
b1101000011010000001010 %
1#
b11 &
1!
#1771
b11001101000000000000000000000000000000000000000000000000000000000000000001100000000000000000000000000000000000000000000000000000000000000010000101001000100 (
b1001100 )
#1780
b100000000 (
0!
#1790
b11 &
1#
1!
#1791
b1 )
b11001101000000000000000000000000000000000000000000000000000000000000000001100000000000000000000000000000000000000000000000000000000000000010000101001000100 (
#1800
b100000000 (
0!
#1810
b11001101000000000000000000000000000000000000000000000000000000000000000001000000000000000000000000000000000000000000000000000000000000000010000101001000100 $
b10 0
b11 &
1#
1!
#1811
b11001101000000000000000000000000000000000000000000000000000000000000000001000000000000000000000000000000000000000000000000000000000000000010000101001000100 (
#1820
b100000000 (
0!
#1830
b11 &
0#
1!
#1831
b10000110100000100001011 *
b11001101000000000000000000000000000000000000000000000000000000000000000001000000000000000000000000000000000000000000000000000000000000000010000101001000100 (
b1011 +
#1840
b10000110100000100001011 '
0!
#1850
b100010000110000000000000000000000000000000000000000000000000000000000000000100000000000000000000000000000000000000000000000000000000000000100000101101000001 $
b10000110100000100001011 %
1#
b11 &
1!
#1851
b100010000110000000000000000000000000000000000000000000000000000000000000000100000000000000000000000000000000000000000000000000000000000000100000101101000001 (
b111110 )
#1860
b100000000 (
0!
#1870
b11 &
1#
1!
#1871
b1 )
b100010000110000000000000000000000000000000000000000000000000000000000000000100000000000000000000000000000000000000000000000000000000000000100000101101000001 (
#1880
b100000000 (
0!
#1890
b100010000110000000000000000000000000000000000000000000000000000000000000001100000000000000000000000000000000000000000000000000000000000000100000101101000001 $
b11 /
b11 &
1#
1!
#1891
b100010000110000000000000000000000000000000000000000000000000000000000000001100000000000000000000000000000000000000000000000000000000000000100000101101000001 (
#1900
b100000000 (
0!
#1910
b11 &
0#
1!
#1911
b10001100001100 *
b100010000110000000000000000000000000000000000000000000000000000000000000001100000000000000000000000000000000000000000000000000000000000000100000101101000001 (
b1100 +
#1920
b10001100001100 '
0!
#1930
b10000000000000000000000000000000000000000000000000000000000000000000000000000000000000000000000000000000000000000000000000000000000000001000000110001000011 $
b10001100001100 %
b10 &
1!
#1931
b111110010000111100001101 *
b10000000000000000000000000000000000000000000000000000000000000000000000000000000000000000000000000000000000000000000000000000000000000001000000110001000011 (
b1001110 )
b1101 +
#1940
b111110010000111100001101 '
0!
#1950
b111110010000111100001101 %
b111110010000000000000000000000000000000000000000000000000000000000000000000000000000000000000000000000000000000000000000000000000000000000000110110000000 $
b0 &
1!
#1951
b100011101000001110 *
b1100 )
b111110010000000000000000000000000000000000000000000000000000000000000000000000000000000000000000000000000000000000000000000000000000000000000110110000000 (
b1110 +
#1960
b100011101000001110 '
0!
#1970
b11000000100000000000000000000000000000000000000000000000000000000000000010000000000000000000000000000000000000000000000000000000000000000110000111000100000 $
b100011101000001110 %
b101 0
b10 &
1!
#1971
b111111111111111100001111 *
b11000000100000000000000000000000000000000000000000000000000000000000000010000000000000000000000000000000000000000000000000000000000000000110000111000100000 (
b100000110 )
b1111 +
#1972
1"
#1980
b100000000000 '
b100000000 (
b100000000000 *
0!
